
================================================================================

 欢迎使用qzjeemis - Powered By qzsoft 2019

================================================================================